CHIHIRO KARIYA – RとQuartoではじめるデータサイエンス
…
  slice(-1) |> #1行目(ラベル)を削除
  select(`SSDSE-D-2023`, Prefecture, MA00) |> 
  filter_out(`SSDSE-D-2023` == "0_総数") |> # 性別のみにする
  separate(`SSDSE-D-2023`, into = c(NA, "性別"), sep = "_") |> # 性別という列を作り、アンダースコアで値を分けて入れる
  filter(性別 %in% c("男", "女")) |> # すでに値は男もしくは女だけのはずだが、念の為
  mutate(MA00 = as.numeric(MA00)) |> 
  mutate(推定人口 = MA00 * 1000) |> 
  mutate(Prefecture = factor(Prefecture, levels = pref_levels)) |> 
  mutate(性別 = factor(性別, levels = c("男", "女"))) |> 
  filter_out(Prefecture == "全国") |> 
  rename(都道府県 = Prefecture) |> 
  select(!MA00) |>  # コードに即した値でなく、すでに推定人口は算出したので不要（ミスのもとになり得る）
  drop_na(都道府県) # 総数なので不要

# A tibble: 94 × 3
   性別  都道府県 推定人口
   <fct> <fct>       <dbl>
 1 男    北海道    2179000
 2 男    青森県     514000
 3 男    岩手県     520000
 4 男    宮城県    1009000
 5 男    秋田県     404000
 6 男    山形県     459000
 7 男    福島県     809000
 8 男    茨城県    1288000
 9 男    栃木県     866000
10 男    群馬県     857000
# ℹ 84 more rows
…
