Samuel Johnson – CHIHIRO KARIYA
…
# tf-idf
word_tfidf <- 
  word_counts |> 
  bind_tf_idf(word, gutenberg_id, n)

top_words <-
  word_tfidf |> 
  group_by(gutenberg_id) |> 
  slice_max(tf_idf, n = 10) |> 
  ungroup()

top_words |> head(30)

# A tibble: 30 × 6
   gutenberg_id word        n      tf   idf tf_idf
          <int> <chr>   <int>   <dbl> <dbl>  <dbl>
 1        10351 nation    392 0.00655     0      0
 2        10351 war       289 0.00483     0      0
 3        10351 power     284 0.00475     0      0
 4        10351 publick   282 0.00471     0      0
 5        10351 opinion   242 0.00404     0      0
 6        10351 country   216 0.00361     0      0
 7        10351 bill      214 0.00358     0      0
 8        10351 enemies   202 0.00338     0      0
 9        10351 law       198 0.00331     0      0
10        10351 reason    197 0.00329     0      0
# ℹ 20 more rows
…
# tf-idf
word_tfidf <- 
  word_counts |> 
  bind_tf_idf(word, gutenberg_id, n)

top_words <-
  word_tfidf |> 
  group_by(gutenberg_id) |> 
  slice_max(tf_idf, n = 10) |> 
  ungroup()

top_words |> head(30)

# A tibble: 30 × 6
   gutenberg_id word        n      tf   idf tf_idf
          <int> <chr>   <int>   <dbl> <dbl>  <dbl>
 1        10352 bill      495 0.00825     0      0
 2        10352 nation    385 0.00642     0      0
 3        10352 people    349 0.00582     0      0
 4        10352 publick   337 0.00562     0      0
 5        10352 war       300 0.00500     0      0
 6        10352 law       279 0.00465     0      0
 7        10352 power     267 0.00445     0      0
 8        10352 troops    260 0.00433     0      0
 9        10352 country   231 0.00385     0      0
10        10352 reason    219 0.00365     0      0
# ℹ 20 more rows
…
# 共起関係（n >= 10）
cooccur <- 
tokens |> 
  pairwise_count(item = word, feature = doc_id, sort = TRUE, upper = FALSE) |> 
  filter(n >= 10)

cooccur

# A tibble: 30 × 3
   item1    item2          n
   <chr>    <chr>      <dbl>
 1 queen    hungary       35
 2 walpole  robert        30
 3 john     barnard       30
 4 subjects fellow        28
 5 publick  service       26
 6 william  yonge         25
 7 officers soldiers      21
 8 sanction pragmatick    21
 9 common   fame          20
10 war      success       18
# ℹ 20 more rows
…
# 共起関係（n >= 10）
cooccur <- 
tokens |> 
  pairwise_count(item = word, feature = doc_id, sort = TRUE, upper = FALSE) |> 
  filter(n >= 10)

cooccur

# A tibble: 57 × 3
   item1      item2          n
   <chr>      <chr>      <dbl>
 1 queen      hungary       81
 2 troops     hanover       39
 3 war        ships         34
 4 sanction   pragmatick    33
 5 subjects   fellow        23
 6 liquors    distilled     21
 7 spirituous liquors       20
 8 spirits    distilled     20
 9 publick    affairs       19
10 publick    happiness     19
# ℹ 47 more rows
…
# 共起関係（eloquent）
cooccur <- 
  tokens |> 
  pairwise_count(item = word, feature = doc_id, sort = TRUE, upper = FALSE) |> 
  filter(item1 %in% c("eloquent", "eloquence") |
           item2 %in% c("eloquent", "eloquence"))

cooccur

# A tibble: 56 × 3
   item1      item2         n
   <chr>      <chr>     <dbl>
 1 power      eloquence     3
 2 eloquence  praise        2
 3 eloquence  displayed     2
 4 reports    eloquent      1
 5 faithful   eloquent      1
 6 deservedly eloquent      1
 7 eminent    eloquent      1
 8 french     eloquence     1
 9 majesty    eloquence     1
10 sagacity   eloquence     1
# ℹ 46 more rows
…
# 共起関係（eloquent）
cooccur <- 
  tokens |> 
  pairwise_count(item = word, feature = doc_id, sort = TRUE, upper = FALSE) |> 
  filter(item1 %in% c("eloquent", "eloquence") |
           item2 %in% c("eloquent", "eloquence"))

cooccur

# A tibble: 40 × 3
   item1     item2         n
   <chr>     <chr>     <dbl>
 1 arts      eloquence     2
 2 reason    eloquence     1
 3 utmost    eloquence     1
 4 strength  eloquence     1
 5 employed  eloquence     1
 6 inquiry   eloquence     1
 7 notions   eloquence     1
 8 splendid  eloquence     1
 9 ignorance eloquence     1
10 raise     eloquence     1
# ℹ 30 more rows
…
