CHIHIRO KARIYA – Samuel Johnson, Parliamentary Debates
…
行単位

Tab A
Tab B

# 共起関係（n >= 10 のものだけ）

cooccur <- 
  tokens_1740_1742 |> 
  pairwise_count(item = word, feature = doc_id, sort = TRUE, upper = FALSE) |> 
  filter(n >= 10)

cooccur

# A tibble: 30 × 3
   item1    item2          n
   <chr>    <chr>      <dbl>
 1 queen    hungary       35
 2 walpole  robert        30
 3 john     barnard       30
 4 subjects fellow        28
 5 publick  service       26
 6 william  yonge         25
 7 officers soldiers      21
 8 sanction pragmatick    21
 9 common   fame          20
10 war      success       18
# ℹ 20 more rows
…
aa

# A tibble: 30 × 3
   item1    item2          n
   <chr>    <chr>      <dbl>
 1 queen    hungary       35
 2 walpole  robert        30
 3 john     barnard       30
 4 subjects fellow        28
 5 publick  service       26
 6 william  yonge         25
 7 officers soldiers      21
 8 sanction pragmatick    21
 9 common   fame          20
10 war      success       18
# ℹ 20 more rows
…
# A tibble: 56 × 3
   item1      item2         n
   <chr>      <chr>     <dbl>
 1 power      eloquence     3
 2 eloquence  praise        2
 3 eloquence  displayed     2
 4 reports    eloquent      1
 5 faithful   eloquent      1
 6 deservedly eloquent      1
 7 eminent    eloquent      1
 8 french     eloquence     1
 9 majesty    eloquence     1
10 sagacity   eloquence     1
# ℹ 46 more rows
…
# A tibble: 24 × 3
   item1   item2          n
   <chr>   <chr>      <dbl>
 1 liberty preserve       4
 2 liberty opposition     3
 3 liberty means          3
 4 liberty commerce       3
 5 liberty justice        3
 6 liberty laws           3
 7 liberty trade          2
 8 liberty mentioned      2
 9 liberty publick        2
10 liberty assembly       2
# ℹ 14 more rows
…
